{
  "profiles": {
    "RPOnlineGame": {
      "commandName": "Executable",
      "executablePath": "E:\\servers\\Game_Servers\\FiveM\\FXServer.exe",
      "commandLineArgs": "+exec server.cfg",
      "remoteDebugEnabled": false
    }
  }
}